"id","name","views","brand"
1,"Hisense U6G Series 4K ULED Android Smart TV",100,1
2,"Hisense U7G Series 4K ULED Android Smart TV",150,1
3,"Samsung Q60A Series QLED 4K UHD Smart Tizen TV",375,2
4,"Vizio M-Series Quantum LED 4K HDR Smart TV",250,3
5,"Vizio P-Series Quantum LED 4K HDR Smart TV",NULL,3
